Avertising .IP
…
## to determine the groupnof individuals whoa re most likely to click on ads

#the metric for success #### the succes will be determined by ability to identify which group mostly clicked on ads  #the context #### A Kenyan entrepreneur has created an online cryptography course and would want to advertise it on her blog. She currently targets audiences originating from various countries. In the past, she ran ads to advertise a related course on the same blog and collected data in the process.  #experimental design taken ### 1.the process involves , installing necesssary packages ###2.loading dataset to R ###3.Performing data cleaning and outlier detection ###4. doing univariate and Bivariate abalysis 

loading our data data set

#install.packages("readxl")
library("readxl")

loading data

df<- read_excel("C:/Users/hp/Downloads/advertising.xls")
df

## # A tibble: 1,000 x 10
##    `Daily Time Spen~   Age `Area Income` `Daily Internet ~ `Ad Topic Line` City 
##                <dbl> <dbl>         <dbl>             <dbl> <chr>           <chr>
##  1              69.0    35        61834.              256. Cloned 5thgene~ Wrig~
##  2              80.2    31        68442.              194. Monitored nati~ West~
##  3              69.5    26        59786.              236. Organic bottom~ Davi~
##  4              74.2    29        54806.              246. Triple-buffere~ West~
##  5              68.4    35        73890.              226. Robust logisti~ Sout~
##  6              60.0    23        59762.              227. Sharable clien~ Jami~
##  7              88.9    33        53853.              208. Enhanced dedic~ Bran~
##  8              66      48        24593.              132. Reactive local~ Port~
##  9              74.5    30        68862               222. Configurable c~ West~
## 10              69.9    20        55642.              184. Mandatory homo~ Rami~
## # ... with 990 more rows, and 4 more variables: Male <dbl>, Country <chr>,
## #   Timestamp <chr>, Clicked on Ad <dbl>
…
